%YAML 1.1
%TAG !u! tag:unity3d.com,2011:
--- !u!1 &132750
GameObject:
  m_ObjectHideFlags: 0
  m_CorrespondingSourceObject: {fileID: 0}
  m_PrefabInstance: {fileID: 0}
  m_PrefabAsset: {fileID: 0}
  serializedVersion: 6
  m_Component:
  - component: {fileID: 481646}
  - component: {fileID: 11427478}
  m_Layer: 0
  m_Name: SlidingTile_5by5
  m_TagString: Untagged
  m_Icon: {fileID: 0}
  m_NavMeshLayer: 0
  m_StaticEditorFlags: 0
  m_IsActive: 1
--- !u!4 &481646
Transform:
  m_ObjectHideFlags: 0
  m_CorrespondingSourceObject: {fileID: 0}
  m_PrefabInstance: {fileID: 0}
  m_PrefabAsset: {fileID: 0}
  m_GameObject: {fileID: 132750}
  m_LocalRotation: {x: -0.7071068, y: 0, z: 0, w: 0.7071067}
  m_LocalPosition: {x: 0, y: 0, z: 0}
  m_LocalScale: {x: 1, y: 1, z: 1}
  m_Children: []
  m_Father: {fileID: 0}
  m_RootOrder: 0
  m_LocalEulerAnglesHint: {x: 0, y: 0, z: 0}
--- !u!114 &11427478
MonoBehaviour:
  m_ObjectHideFlags: 0
  m_CorrespondingSourceObject: {fileID: 0}
  m_PrefabInstance: {fileID: 0}
  m_PrefabAsset: {fileID: 0}
  m_GameObject: {fileID: 132750}
  m_Enabled: 1
  m_EditorHideFlags: 0
  m_Script: {fileID: 11500000, guid: b2d4dcadfc81e0b48b85c2466d186c9d, type: 3}
  m_Name: 
  m_EditorClassIdentifier: 
  PuzzleImage: {fileID: 2800000, guid: 189445e057f8cc94398b6b7f7bcf588d, type: 3}
  Height: 3
  Width: 4
  PuzzleScale: {x: 1, y: 1, z: 1}
  PuzzlePosition: {x: 7.5, y: 4.5, z: 5}
  SeperationBetweenTiles: 0.2
  Tile: {fileID: 164140, guid: b2998fb091305694ea5656c50beebce0, type: 3}
  PuzzleShader: {fileID: 10708, guid: 0000000000000000f000000000000000, type: 0}
  Complete: 0
