%YAML 1.1
%TAG !u! tag:unity3d.com,2011:
--- !u!78 &1
TagManager:
  serializedVersion: 2
  tags:
  - Energy
  - EnergyMovementCollider
  - Bullets
  - Wall
  - Ammo
  - Health
  - AI
  - Planet
  - EnemyBullets
  - Destruction Zone
  - EnergyPlacer
  - DirectionChooser
  - Destroyer
  - BGcamera
  - BadSignal
  - GoodSignal
  - Bridge
  layers:
  - Default
  - TransparentFX
  - Ignore Raycast
  - 
  - Water
  - UI
  - 
  - 
  - Player
  - allies
  - Wall
  - background
  - 
  - 
  - 
  - 
  - 
  - 
  - 
  - 
  - 
  - 
  - 
  - 
  - 
  - 
  - 
  - 
  - 
  - 
  - 
  - 
  m_SortingLayers:
  - name: Default
    uniqueID: 0
    locked: 0
