%YAML 1.1
%TAG !u! tag:unity3d.com,2011:
--- !u!1001 &18869993032572259
PrefabInstance:
  m_ObjectHideFlags: 0
  serializedVersion: 2
  m_Modification:
    m_TransformParent: {fileID: 0}
    m_Modifications:
    - target: {fileID: 2446614382251449028, guid: 2db09696860988f4eab8444b345be5c0,
        type: 3}
      propertyPath: m_Name
      value: Asteroid 1
      objectReference: {fileID: 0}
    - target: {fileID: 2446614382251449034, guid: 2db09696860988f4eab8444b345be5c0,
        type: 3}
      propertyPath: m_LocalPosition.x
      value: 0.6999998
      objectReference: {fileID: 0}
    - target: {fileID: 2446614382251449034, guid: 2db09696860988f4eab8444b345be5c0,
        type: 3}
      propertyPath: m_LocalPosition.y
      value: 0
      objectReference: {fileID: 0}
    - target: {fileID: 2446614382251449034, guid: 2db09696860988f4eab8444b345be5c0,
        type: 3}
      propertyPath: m_LocalPosition.z
      value: 13.1
      objectReference: {fileID: 0}
    - target: {fileID: 2446614382251449034, guid: 2db09696860988f4eab8444b345be5c0,
        type: 3}
      propertyPath: m_LocalRotation.x
      value: -0
      objectReference: {fileID: 0}
    - target: {fileID: 2446614382251449034, guid: 2db09696860988f4eab8444b345be5c0,
        type: 3}
      propertyPath: m_LocalRotation.y
      value: 0.42261827
      objectReference: {fileID: 0}
    - target: {fileID: 2446614382251449034, guid: 2db09696860988f4eab8444b345be5c0,
        type: 3}
      propertyPath: m_LocalRotation.z
      value: -0
      objectReference: {fileID: 0}
    - target: {fileID: 2446614382251449034, guid: 2db09696860988f4eab8444b345be5c0,
        type: 3}
      propertyPath: m_LocalRotation.w
      value: 0.9063079
      objectReference: {fileID: 0}
    - target: {fileID: 2446614382251449034, guid: 2db09696860988f4eab8444b345be5c0,
        type: 3}
      propertyPath: m_RootOrder
      value: 0
      objectReference: {fileID: 0}
    - target: {fileID: 2446614382251449034, guid: 2db09696860988f4eab8444b345be5c0,
        type: 3}
      propertyPath: m_LocalEulerAnglesHint.x
      value: 0
      objectReference: {fileID: 0}
    - target: {fileID: 2446614382251449034, guid: 2db09696860988f4eab8444b345be5c0,
        type: 3}
      propertyPath: m_LocalEulerAnglesHint.y
      value: 50
      objectReference: {fileID: 0}
    - target: {fileID: 2446614382251449034, guid: 2db09696860988f4eab8444b345be5c0,
        type: 3}
      propertyPath: m_LocalEulerAnglesHint.z
      value: 0
      objectReference: {fileID: 0}
    - target: {fileID: 2446614382251449032, guid: 2db09696860988f4eab8444b345be5c0,
        type: 3}
      propertyPath: m_Materials.Array.data[0]
      value: 
      objectReference: {fileID: 2100000, guid: dce123f8a00172d42ada1d96bf285fd5, type: 2}
    m_RemovedComponents: []
  m_SourcePrefab: {fileID: 100100000, guid: 2db09696860988f4eab8444b345be5c0, type: 3}
